Homework Sheet 4 â€“ Model comparison and hypothesis testing
…
Ex 1.d By-participant mean correctness and mean RT [2 points]

Create a tibble in which each row shows the proportion of â€œcorrectâ€ answers and the mean reaction time for a different participant. So, this tibble will have as many rows as there are participants in the data set. (Hint: Use a sequence of group_by and summarize.)

Plot the by-participant summary statistics in this tibble in a scatter plot, showing the proportion of â€œcorrectâ€ answers on the \(x\)-axis and the mean reaction times on the \(y\)-axis. (Just for clarity: Every point in this plot represents one participant.)

(Rationale for doing this: Even though we will not draw direct conclusions from this plot here, visualizing your data like shown here is usually a good way of getting familiar with what you are dealing with.))

# creating a By-participant mean correctness and mean RT tibble
by_participant <- data_ST %>% group_by(submission_id) %>% summarize(mean_reaction_time = mean(RT), proportion_correct_answers = mean(correctness == "correct")) 
by_participant

## # A tibble: 39 x 3
##    submission_id mean_reaction_time proportion_correct_answers
##            <dbl>              <dbl>                      <dbl>
##  1          1264               503.                      0.992
##  2          1265               520.                      0.925
##  3          1266               483.                      0.883
##  4          1267               603.                      0.908
##  5          1268               449.                      0.983
##  6          1269               508.                      0.967
##  7          1270               406.                      0.917
##  8          1271               570.                      0.933
##  9          1272               445.                      0.958
## 10          1273               464.                      0.975
## # ... with 29 more rows
…
Ex 1.e Remove participants [3 points]

Remove all data from all participants who gave less than 50% correct answers or whose mean reaction time is smaller than 350ms or larger than 750ms. Use R to output information about how many participants have been excluded in this way.

# removing all data less than 50 % correct answers & reaction time is smaller than 350 / larger than 750 
modified_dataset <- by_participant %>% .[(.[,3]>0.5),] %>% .[(.[,2]<750),] %>% .[(.[,2]>350),]
modified_dataset

## # A tibble: 38 x 3
##    submission_id mean_reaction_time proportion_correct_answers
##            <dbl>              <dbl>                      <dbl>
##  1          1264               503.                      0.992
##  2          1265               520.                      0.925
##  3          1266               483.                      0.883
##  4          1267               603.                      0.908
##  5          1268               449.                      0.983
##  6          1269               508.                      0.967
##  7          1270               406.                      0.917
##  8          1271               570.                      0.933
##  9          1272               445.                      0.958
## 10          1273               464.                      0.975
## # ... with 28 more rows
…
# subtracting those numbers
excluded_participants <- amount_participants - amount_participants_modified
print(excluded_participants)

## [1] 1

Ex 1.f Remove individual trials [3 points]

Exclude all trials with reaction times longer than 1 second or shorter than 100 ms. Use R to output information about how many trials have been excluded in this way.

modified_dataset <- data_ST %>% group_by(trial_number) %>%  .[(.[,7]<1000),] %>% .[(.[,7]>100),] 
modified_dataset

## # A tibble: 4,565 x 7
## # Groups:   trial_number [100]
##    submission_id key_p_is_for timeSpent trial_number condition correctness    RT
##            <dbl> <chr>            <dbl>        <dbl> <chr>     <chr>       <dbl>
##  1          1302 square            7.88            1 incongru~ correct       542
##  2          1302 square            7.88            2 incongru~ correct       438
##  3          1302 square            7.88            3 incongru~ correct       429
##  4          1302 square            7.88            4 congruent correct       456
##  5          1302 square            7.88            5 incongru~ correct       422
##  6          1302 square            7.88            6 incongru~ correct       341
##  7          1302 square            7.88            7 incongru~ correct       407
##  8          1302 square            7.88            8 congruent correct       424
##  9          1302 square            7.88            9 incongru~ correct       336
## 10          1302 square            7.88           10 incongru~ correct       360
## # ... with 4,555 more rows
…
# first of all compute delta : therefore samples are needed
tidy_samples <- tidybayes::tidy_draws(stan_fit_ttest) %>% select(theta1, theta2) %>% mutate(delta = theta1 - theta2)
tidy_samples 

## # A tibble: 36,000 x 3
##    theta1 theta2  delta
##     <dbl>  <dbl>  <dbl>
##  1  0.953  0.917 0.0362
##  2  0.961  0.913 0.0484
##  3  0.959  0.906 0.0533
##  4  0.960  0.917 0.0436
##  5  0.963  0.911 0.0521
##  6  0.949  0.912 0.0370
##  7  0.956  0.918 0.0381
##  8  0.956  0.910 0.0451
##  9  0.959  0.910 0.0489
## 10  0.960  0.917 0.0424
## # ... with 35,990 more rows
…
